<?xml version="1.0" encoding="utf-8"?>
<!-- Generator: Adobe Illustrator 24.3.0, SVG Export Plug-In . SVG Version: 6.00 Build 0)  -->
<svg version="1.1" id="Layer_1" xmlns="http://www.w3.org/2000/svg" xmlns:xlink="http://www.w3.org/1999/xlink" x="0px" y="0px"
	 viewBox="0 0 241.8 145.8" style="enable-background:new 0 0 241.8 145.8;" xml:space="preserve">
<style type="text/css">
	.st0{display:none;}
	.st1{display:inline;}
	.st2{fill:#65B03B;}
</style>
<g id="Layer_2_1_" class="st0">
	<g class="st1">
		<path d="M8.8,9.5h2v3.1c-0.8,1-2,1.4-3.6,1.4c-1.3,0-2.4-0.4-3.2-1.2s-1.3-1.9-1.3-3.2S3.1,7.2,4,6.4s2-1.3,3.2-1.3
			s2.4,0.4,3.3,1.2l-1,1.4C9.1,7.4,8.8,7.1,8.5,7s-0.7-0.2-1-0.2C6.7,6.9,6,7.1,5.5,7.6S4.7,8.7,4.7,9.5s0.3,1.5,0.7,2
			c0.5,0.5,1,0.7,1.8,0.7c0.7,0,1.2-0.1,1.7-0.4L8.8,9.5L8.8,9.5z"/>
		<path d="M18.8,5.3V7h-4.3v1.8h3.9v1.6h-3.9v1.8h4.4v1.7h-6.4V5.3H18.8z"/>
		<path d="M24.2,7v7h-2V7h-2.5V5.3h6.9V7H24.2z"/>
		<path d="M33.5,7.1c-0.2,0.1-0.3,0.3-0.3,0.6s0.1,0.5,0.3,0.6s0.8,0.3,1.6,0.5s1.4,0.5,1.9,0.9s0.7,1,0.7,1.8s-0.3,1.4-0.8,1.9
			c-0.6,0.5-1.4,0.7-2.3,0.7c-1.4,0-2.6-0.5-3.7-1.5l1.2-1.4c0.9,0.8,1.8,1.2,2.6,1.2c0.3,0,0.7-0.1,0.8-0.3
			c0.2-0.1,0.3-0.4,0.3-0.7s-0.1-0.5-0.3-0.7c-0.2-0.1-0.7-0.3-1.3-0.5c-1-0.3-1.8-0.5-2.2-0.9c-0.5-0.4-0.7-1-0.7-1.8
			s0.3-1.4,0.9-1.9C32.7,5.2,33.4,5,34.3,5c0.6,0,1.2,0.1,1.8,0.3c0.6,0.2,1.1,0.5,1.5,0.8l-1,1.4c-0.8-0.6-1.5-0.8-2.4-0.8
			C33.9,6.8,33.7,6.9,33.5,7.1z"/>
		<path d="M45.4,14l-0.8-1.9H41L40.2,14h-2.1l3.7-8.7h1.9l3.7,8.7H45.4z M42.8,7.9l-1.1,2.5h2.2L42.8,7.9z"/>
		<path d="M56.3,8.5l-2.4,4.8h-1.2l-2.4-4.8V14h-2V5.3H51l2.2,4.8l2.2-4.8H58V14h-2V8.5H56.3z"/>
		<path d="M66.6,5.3V7h-4.3v1.8h3.9v1.6h-3.9v1.8h4.4v1.7h-6.4V5.3H66.6z"/>
		<path d="M78.3,6.5c0.8,0.8,1.2,1.8,1.2,3.1c0,1.4-0.4,2.4-1.2,3.2c-0.8,0.8-2,1.2-3.7,1.2h-2.9V5.3h3.1
			C76.3,5.3,77.5,5.7,78.3,6.5z M76.9,11.6c0.5-0.5,0.7-1.1,0.7-2c0-0.8-0.3-1.5-0.7-2c-0.5-0.5-1.2-0.7-2.2-0.7h-1.1v5.3h1.2
			C75.8,12.3,76.4,12,76.9,11.6z"/>
		<path d="M87.2,14l-0.8-1.9h-3.7L82,14h-2.1l3.7-8.7h1.9l3.7,8.7H87.2z M84.6,7.9l-1.1,2.5h2.2L84.6,7.9z"/>
		<path d="M93.4,14h-2v-3.4l-3-5.2h2.1l1.9,3.2l1.9-3.2h2.1l-3,5.2V14L93.4,14z"/>
	</g>
	<path class="st1" d="M108,6.5c0.8,0.8,1.2,1.8,1.2,3.1c0,1.4-0.4,2.4-1.2,3.2c-0.8,0.8-2,1.2-3.7,1.2h-2.9V5.4h3.1
		C106,5.4,107.2,5.7,108,6.5z M106.6,11.7c0.5-0.5,0.7-1.1,0.7-2c0-0.8-0.3-1.5-0.7-2c-0.5-0.5-1.2-0.7-2.2-0.7h-1.1v5.3h1.2
		C105.4,12.3,106.1,12.1,106.6,11.7z"/>
	<path class="st1" d="M117.2,5.4v1.7h-4.3v1.8h3.9v1.6h-3.9v1.8h4.4V14h-6.4V5.4H117.2z"/>
	<path class="st1" d="M119.1,14V5.4h2v6.9h3.7V14H119.1L119.1,14z"/>
	<path class="st1" d="M126.1,5.4h2V14h-2C126.1,14,126.1,5.4,126.1,5.4z"/>
	<path class="st1" d="M133.4,10.9l2.2-5.6h2.1l-3.5,8.7h-1.7L129,5.4h2.1L133.4,10.9z"/>
	<path class="st1" d="M144.9,5.4v1.7h-4.3v1.8h3.9v1.6h-3.9v1.8h4.4V14h-6.4V5.4H144.9z"/>
	<path class="st1" d="M153.9,8.2c0,1.4-0.5,2.3-1.6,2.7l2.2,3.1h-2.4l-1.9-2.7h-1.4V14h-2V5.4h3.3c1.4,0,2.3,0.2,2.9,0.7
		S153.9,7.2,153.9,8.2z M151.5,9.3c0.3-0.2,0.4-0.6,0.4-1c0-0.5-0.1-0.8-0.4-1c-0.3-0.2-0.7-0.3-1.3-0.3h-1.4v2.5h1.4
		C150.8,9.6,151.3,9.5,151.5,9.3z"/>
	<path class="st1" d="M159.4,14h-2v-3.4l-3-5.2h2.1l1.9,3.2l1.9-3.2h2.1l-3,5.2V14z"/>
	<path class="st1" d="M172.8,14l-0.8-1.9h-3.7l-0.8,1.9h-2.1l3.7-8.7h1.9l3.7,8.7H172.8z M170.1,8l-1.1,2.5h2.2L170.1,8z"/>
	<path class="st1" d="M181.9,5.4h2V14h-2l-4.1-5.4V14h-2V5.4h1.8l4.2,5.6V5.4H181.9z"/>
	<path class="st1" d="M192.6,6.5c0.8,0.8,1.2,1.8,1.2,3.1c0,1.4-0.4,2.4-1.2,3.2s-2,1.2-3.7,1.2H186V5.4h3.1
		C190.6,5.4,191.8,5.7,192.6,6.5z M191.2,11.7c0.5-0.5,0.7-1.1,0.7-2c0-0.8-0.3-1.5-0.7-2S190,7.1,189,7.1h-1.1v5.3h1.2
		C190,12.3,190.7,12.1,191.2,11.7z"/>
	<path class="st1" d="M206.5,8.6l-2.4,4.8H203l-2.4-4.8V14h-2V5.4h2.6l2.2,4.8l2.2-4.8h2.6V14h-2L206.5,8.6L206.5,8.6z"/>
	<path class="st1" d="M217.9,12.9c-0.8,0.8-2,1.3-3.3,1.3s-2.4-0.5-3.3-1.3c-0.9-0.8-1.3-1.9-1.3-3.2s0.5-2.4,1.3-3.2s2-1.3,3.3-1.3
		s2.4,0.5,3.3,1.3c0.9,0.8,1.3,1.9,1.3,3.2C219.2,10.9,218.8,12,217.9,12.9z M217.2,9.7c0-0.8-0.3-1.4-0.7-2s-1.1-0.8-1.8-0.8
		s-1.3,0.3-1.8,0.8s-0.7,1.2-0.7,2s0.3,1.4,0.7,2c0.5,0.5,1.1,0.8,1.8,0.8s1.3-0.3,1.8-0.8C217.1,11.1,217.2,10.4,217.2,9.7z"/>
	<path class="st1" d="M227.9,8.2c0,1.4-0.5,2.3-1.6,2.7l2.2,3.1h-2.4l-1.9-2.7h-1.4V14h-2V5.4h3.3c1.4,0,2.3,0.2,2.9,0.7
		C227.6,6.5,227.9,7.2,227.9,8.2z M225.5,9.3c0.3-0.2,0.4-0.6,0.4-1c0-0.5-0.1-0.8-0.4-1c-0.3-0.2-0.7-0.3-1.3-0.3h-1.4v2.5h1.4
		C224.9,9.6,225.4,9.5,225.5,9.3z"/>
	<path class="st1" d="M236.1,5.4v1.7h-4.3v1.8h3.9v1.6h-3.9v1.8h4.4V14h-6.4V5.4H236.1z"/>
</g>
<g>
	<path class="st2" d="M10.5,68.7c0.8,0.7,1.2,1.7,1.2,3.1s-0.4,2.4-1.2,3s-2,1-3.7,1H5.3v3.1H2.8V67.7h4C8.5,67.7,9.7,68,10.5,68.7z
		 M8.7,73.1c0.3-0.3,0.4-0.8,0.4-1.5s-0.2-1.1-0.6-1.4c-0.4-0.3-1-0.4-1.8-0.4H5.3v3.8H7C7.8,73.6,8.4,73.4,8.7,73.1z"/>
	<path class="st2" d="M21.7,67.7v2.2h-5.6v2.3h5v2.1h-5v2.3h5.7v2.2h-8.2V67.7H21.7z"/>
	<path class="st2" d="M28.9,69.8v9h-2.5v-9h-3.2v-2.2H32v2.2H28.9z"/>
	<path class="st2" d="M42.9,71.4c0,1.8-0.7,2.9-2.1,3.5l2.8,4h-3.1L38,75.3h-1.7v3.6h-2.5V67.7H38c1.7,0,3,0.3,3.7,0.9
		S42.9,70.1,42.9,71.4z M39.9,72.7c0.3-0.3,0.5-0.7,0.5-1.3s-0.2-1-0.5-1.2s-0.9-0.3-1.7-0.3h-1.9v3.3h1.8
		C39,73.1,39.6,73,39.9,72.7z"/>
	<path class="st2" d="M54.8,77.3c-1.1,1.1-2.5,1.7-4.2,1.7s-3-0.6-4.2-1.7c-1.1-1.1-1.7-2.5-1.7-4.1s0.6-3,1.7-4.1
		c1.1-1.1,2.5-1.7,4.2-1.7s3,0.6,4.2,1.7c1.1,1.1,1.7,2.5,1.7,4.1S55.9,76.2,54.8,77.3z M53.9,73.2c0-1-0.3-1.8-1-2.6
		s-1.4-1.1-2.4-1.1c-0.9,0-1.7,0.4-2.4,1.1c-0.6,0.7-1,1.6-1,2.6s0.3,1.8,1,2.5c0.6,0.7,1.4,1,2.4,1c0.9,0,1.7-0.3,2.4-1
		C53.6,75,53.9,74.2,53.9,73.2z"/>
	<path class="st2" d="M58.6,78.8V67.7h2.5v9h4.8v2.2L58.6,78.8L58.6,78.8z"/>
	<path class="st2" d="M74.5,69.9c-0.2,0.2-0.4,0.5-0.4,0.8s0.1,0.6,0.4,0.8c0.3,0.2,1,0.4,2,0.7c1.1,0.3,1.9,0.7,2.5,1.2
		s0.9,1.3,0.9,2.3s-0.4,1.8-1.1,2.4s-1.7,0.9-3,0.9c-1.8,0-3.4-0.7-4.8-2l1.5-1.8c1.2,1.1,2.3,1.6,3.3,1.6c0.5,0,0.8-0.1,1.1-0.3
		s0.4-0.5,0.4-0.8s-0.1-0.6-0.4-0.8s-0.8-0.4-1.6-0.6C74,74,73,73.6,72.4,73.1s-0.9-1.3-0.9-2.3s0.4-1.9,1.1-2.5
		c0.8-0.6,1.7-0.9,2.9-0.9c0.7,0,1.5,0.1,2.2,0.4s1.4,0.6,2,1.1l-1.3,1.8c-1-0.7-2-1.1-3-1.1C75.1,69.6,74.7,69.7,74.5,69.9z"/>
	<path class="st2" d="M86.7,69.8v9h-2.5v-9H81v-2.2h8.8v2.2H86.7z"/>
	<path class="st2" d="M98.9,78.8l-1-2.4h-4.7l-1,2.4h-2.7l4.8-11.2h2.4l4.8,11.2H98.9z M95.5,71l-1.4,3.2h2.8L95.5,71z"/>
	<path class="st2" d="M106.8,69.8v9h-2.5v-9h-3.2v-2.2h8.8v2.2H106.8z"/>
	<path class="st2" d="M111.7,67.7h2.5v11.2h-2.5V67.7z"/>
	<path class="st2" d="M126.4,77.3c-1.1,1.1-2.5,1.7-4.2,1.7s-3-0.6-4.2-1.7c-1.1-1.1-1.7-2.5-1.7-4.1s0.6-3,1.7-4.1s2.5-1.7,4.2-1.7
		s3,0.6,4.2,1.7c1.1,1.1,1.7,2.5,1.7,4.1S127.5,76.2,126.4,77.3z M125.6,73.2c0-1-0.3-1.8-1-2.6c-0.6-0.7-1.4-1.1-2.4-1.1
		c-0.9,0-1.7,0.4-2.4,1.1c-0.6,0.7-1,1.6-1,2.6s0.3,1.8,1,2.5c0.6,0.7,1.4,1,2.4,1c0.9,0,1.7-0.3,2.4-1
		C125.2,75,125.6,74.2,125.6,73.2z"/>
	<path class="st2" d="M138,67.7h2.5v11.2H138l-5.3-7v7h-2.5V67.7h2.3l5.5,7.2V67.7z"/>
	<path class="st2" d="M155.3,67.7h2.5v11.2h-2.5l-5.3-7v7h-2.5V67.7h2.3l5.5,7.2V67.7z"/>
	<path class="st2" d="M170,77.3c-1.1,1.1-2.5,1.7-4.2,1.7s-3-0.6-4.2-1.7c-1.1-1.1-1.7-2.5-1.7-4.1s0.6-3,1.7-4.1
		c1.1-1.1,2.5-1.7,4.2-1.7s3,0.6,4.2,1.7c1.1,1.1,1.7,2.5,1.7,4.1S171.1,76.2,170,77.3z M169.1,73.2c0-1-0.3-1.8-1-2.6
		c-0.6-0.7-1.4-1.1-2.4-1.1c-0.9,0-1.7,0.4-2.4,1.1c-0.6,0.7-1,1.6-1,2.6s0.3,1.8,1,2.5c0.6,0.7,1.4,1,2.4,1c0.9,0,1.7-0.3,2.4-1
		S169.1,74.2,169.1,73.2z"/>
	<path class="st2" d="M177.1,74.1l2-6.4h2.6l2,6.4l2.2-6.4h2.7l-3.9,11.2h-1.9l-2.4-7.8l-2.4,7.8h-1.9l-3.9-11.2h2.7L177.1,74.1z"/>
	<path class="st2" d="M203.6,77.3c-1.1,1.1-2.5,1.7-4.2,1.7s-3-0.6-4.2-1.7c-1.1-1.1-1.7-2.5-1.7-4.1s0.6-3,1.7-4.1
		c1.1-1.1,2.5-1.7,4.2-1.7s3,0.6,4.2,1.7c1.1,1.1,1.7,2.5,1.7,4.1C205.2,74.8,204.7,76.2,203.6,77.3z M202.7,73.2c0-1-0.3-1.8-1-2.6
		c-0.6-0.7-1.4-1.1-2.4-1.1c-0.9,0-1.7,0.4-2.4,1.1c-0.6,0.7-1,1.6-1,2.6s0.3,1.8,1,2.5c0.6,0.7,1.4,1,2.4,1c0.9,0,1.7-0.3,2.4-1
		S202.7,74.2,202.7,73.2z"/>
	<path class="st2" d="M215.1,68.7c0.8,0.7,1.2,1.7,1.2,3.1s-0.4,2.4-1.2,3s-2,1-3.7,1h-1.5v3.1h-2.5V67.7h4
		C213,67.7,214.3,68,215.1,68.7z M213.2,73.1c0.3-0.3,0.4-0.8,0.4-1.5s-0.2-1.1-0.6-1.4c-0.4-0.3-1-0.4-1.8-0.4h-1.4v3.8h1.7
		C212.4,73.6,212.9,73.4,213.2,73.1z"/>
	<path class="st2" d="M226.3,67.7v2.2h-5.6v2.3h5v2.1h-5v2.3h5.7v2.2h-8.2V67.7H226.3z"/>
	<path class="st2" d="M236.5,67.7h2.5v11.2h-2.5l-5.3-7v7h-2.5V67.7h2.3l5.5,7.2V67.7z"/>
</g>
</svg>
