<?xml version="1.0" encoding="utf-8"?>
<!-- Generator: Adobe Illustrator 19.2.1, SVG Export Plug-In . SVG Version: 6.00 Build 0)  -->
<svg version="1.1" id="Layer_1" xmlns="http://www.w3.org/2000/svg" xmlns:xlink="http://www.w3.org/1999/xlink" x="0px" y="0px"
	 viewBox="0 0 47.4 47.3" style="enable-background:new 0 0 47.4 47.3;" xml:space="preserve">
<style type="text/css">
	.st0{fill:none;stroke:#65B330;stroke-width:3;stroke-linejoin:round;stroke-miterlimit:10;}
</style>
<polyline class="st0" points="2,1.9 23.6,23.5 1.9,45.2 "/>
<polyline class="st0" points="45.6,1.9 23.9,23.5 45.6,45.2 "/>
</svg>
