<?xml version="1.0" encoding="utf-8"?>
<!-- Generator: Adobe Illustrator 22.1.0, SVG Export Plug-In . SVG Version: 6.00 Build 0)  -->
<svg version="1.1" xmlns="http://www.w3.org/2000/svg" xmlns:xlink="http://www.w3.org/1999/xlink" x="0px" y="0px"
	 viewBox="0 0 220.3 84" style="enable-background:new 0 0 220.3 84;" xml:space="preserve">
<style type="text/css">
	.st0{clip-path:url(#SVGID_2_);}
	.st1{fill:#FFFFFF;stroke:#538316;stroke-width:10.6;}
	.st2{fill:#538316;}
</style>
<g id="Layer_1">
	<g id="TOP">
		<g>
			<g>
				<g>
					<g>
						<defs>
							<rect id="SVGID_1_" x="-0.3" y="0" width="220.6" height="83.9"/>
						</defs>
						<clipPath id="SVGID_2_">
							<use xlink:href="#SVGID_1_"  style="overflow:visible;"/>
						</clipPath>
						<g class="st0">
							<polygon class="st1" points="225.7,-8.2 38.6,-8.1 7.9,78.4 225.7,78.4 							"/>
						</g>
					</g>
				</g>
			</g>
		</g>
	</g>
	<g id="ASDA">
		<g>
			<path class="st2" d="M122.6,50.9l3.3-10.9l3.3,10.9H122.6z M98.4,54.5h-2V39.4h2c3,0,6.4,1.3,6.4,7.5
				C104.8,52.5,101.8,54.5,98.4,54.5 M44.5,50.9l3.4-11l3.3,11H44.5z M131.9,31.5h-11.4L114,50.2c0.3-1.6,0.3-2.8,0.3-3.3
				c0-7.8-4.5-15.4-15.1-15.4h-12v18.7c-1.1-5.3-5.9-6.7-11.9-8.5c-2.2-0.7-3.5-1.8-3-2.8c0.4-0.9,1.8-1.2,3.4-0.9
				c2.6,0.4,4.6,1.2,6.6,2.3l2.7-6.6c-0.6-0.3-5-2.9-10.4-2.9c-7.6,0-12.4,3.7-12.4,9.2c0,4.9,3,7.7,8.5,9.3
				c5.9,1.7,7.4,2.4,7.3,4.1c-0.2,1.5-3.8,3.3-12.8-2.3l-2.8,5.5l-8.3-25H42.7L31.9,62.5h8.9l1.4-4.4h11.3l1.3,4.4h9.4l-1.1-3
				c3.2,1.8,7.1,3.5,11.8,3.5c7.2,0,11.1-3.9,12-7.7v7.2H99c7.2,0,11-3.4,13-7.1l-2.5,7.1h8.9l1.5-4.4h11.4l1.3,4.4h9.4L131.9,31.5z
				"/>
		</g>
	</g>
</g>
<g id="GRN_x5F_19_x5F_BG">
</g>
</svg>
