<?xml version="1.0" encoding="utf-8"?>
<!-- Generator: Adobe Illustrator 24.0.1, SVG Export Plug-In . SVG Version: 6.00 Build 0)  -->
<svg version="1.1" id="Layer_1" xmlns="http://www.w3.org/2000/svg" xmlns:xlink="http://www.w3.org/1999/xlink" x="0px" y="0px"
	 viewBox="0 0 241.8 145.8" style="enable-background:new 0 0 241.8 145.8;" xml:space="preserve">
<style type="text/css">
	.st0{display:none;}
	.st1{display:inline;}
	.st2{fill:#538316;}
</style>
<g id="Layer_2_1_" class="st0">
	<g class="st1">
		<path d="M8.8,9.5h2v3.1c-0.8,1-2,1.4-3.6,1.4c-1.3,0-2.4-0.4-3.2-1.2s-1.3-1.9-1.3-3.2S3.1,7.2,4,6.4s2-1.3,3.2-1.3
			s2.4,0.4,3.3,1.2l-1,1.4C9.1,7.4,8.8,7.1,8.5,7s-0.7-0.2-1-0.2C6.7,6.9,6,7.1,5.5,7.6S4.7,8.7,4.7,9.5s0.3,1.5,0.7,2
			c0.5,0.5,1,0.7,1.8,0.7c0.7,0,1.2-0.1,1.7-0.4L8.8,9.5L8.8,9.5z"/>
		<path d="M18.8,5.3V7h-4.3v1.8h3.9v1.6h-3.9v1.8h4.4v1.7h-6.4V5.3H18.8z"/>
		<path d="M24.2,7v7h-2V7h-2.5V5.3h6.9V7H24.2z"/>
		<path d="M33.5,7.1c-0.2,0.1-0.3,0.3-0.3,0.6s0.1,0.5,0.3,0.6s0.8,0.3,1.6,0.5s1.4,0.5,1.9,0.9s0.7,1,0.7,1.8s-0.3,1.4-0.8,1.9
			c-0.6,0.5-1.4,0.7-2.3,0.7c-1.4,0-2.6-0.5-3.7-1.5l1.2-1.4c0.9,0.8,1.8,1.2,2.6,1.2c0.3,0,0.7-0.1,0.8-0.3
			c0.2-0.1,0.3-0.4,0.3-0.7s-0.1-0.5-0.3-0.7c-0.2-0.1-0.7-0.3-1.3-0.5c-1-0.3-1.8-0.5-2.2-0.9c-0.5-0.4-0.7-1-0.7-1.8
			s0.3-1.4,0.9-1.9C32.7,5.2,33.4,5,34.3,5c0.6,0,1.2,0.1,1.8,0.3c0.6,0.2,1.1,0.5,1.5,0.8l-1,1.4c-0.8-0.6-1.5-0.8-2.4-0.8
			C33.9,6.8,33.7,6.9,33.5,7.1z"/>
		<path d="M45.4,14l-0.8-1.9H41L40.2,14h-2.1l3.7-8.7h1.9l3.7,8.7H45.4z M42.8,7.9l-1.1,2.5h2.2L42.8,7.9z"/>
		<path d="M56.3,8.5l-2.4,4.8h-1.2l-2.4-4.8V14h-2V5.3H51l2.2,4.8l2.2-4.8H58V14h-2V8.5H56.3z"/>
		<path d="M66.6,5.3V7h-4.3v1.8h3.9v1.6h-3.9v1.8h4.4v1.7h-6.4V5.3H66.6z"/>
		<path d="M78.3,6.5c0.8,0.8,1.2,1.8,1.2,3.1c0,1.4-0.4,2.4-1.2,3.2c-0.8,0.8-2,1.2-3.7,1.2h-2.9V5.3h3.1
			C76.3,5.3,77.5,5.7,78.3,6.5z M76.9,11.6c0.5-0.5,0.7-1.1,0.7-2c0-0.8-0.3-1.5-0.7-2c-0.5-0.5-1.2-0.7-2.2-0.7h-1.1v5.3h1.2
			C75.8,12.3,76.4,12,76.9,11.6z"/>
		<path d="M87.2,14l-0.8-1.9h-3.7L82,14h-2.1l3.7-8.7h1.9l3.7,8.7H87.2z M84.6,7.9l-1.1,2.5h2.2L84.6,7.9z"/>
		<path d="M93.4,14h-2v-3.4l-3-5.2h2.1l1.9,3.2l1.9-3.2h2.1l-3,5.2V14L93.4,14z"/>
	</g>
	<path class="st1" d="M108,6.5c0.8,0.8,1.2,1.8,1.2,3.1c0,1.4-0.4,2.4-1.2,3.2c-0.8,0.8-2,1.2-3.7,1.2h-2.9V5.4h3.1
		C106,5.4,107.2,5.7,108,6.5z M106.6,11.7c0.5-0.5,0.7-1.1,0.7-2c0-0.8-0.3-1.5-0.7-2c-0.5-0.5-1.2-0.7-2.2-0.7h-1.1v5.3h1.2
		C105.4,12.3,106.1,12.1,106.6,11.7z"/>
	<path class="st1" d="M117.2,5.4v1.7h-4.3v1.8h3.9v1.6h-3.9v1.8h4.4V14h-6.4V5.4H117.2z"/>
	<path class="st1" d="M119.1,14V5.4h2v6.9h3.7V14H119.1L119.1,14z"/>
	<path class="st1" d="M126.1,5.4h2V14h-2C126.1,14,126.1,5.4,126.1,5.4z"/>
	<path class="st1" d="M133.4,10.9l2.2-5.6h2.1l-3.5,8.7h-1.7L129,5.4h2.1L133.4,10.9z"/>
	<path class="st1" d="M144.9,5.4v1.7h-4.3v1.8h3.9v1.6h-3.9v1.8h4.4V14h-6.4V5.4H144.9z"/>
	<path class="st1" d="M153.9,8.2c0,1.4-0.5,2.3-1.6,2.7l2.2,3.1h-2.4l-1.9-2.7h-1.4V14h-2V5.4h3.3c1.4,0,2.3,0.2,2.9,0.7
		S153.9,7.2,153.9,8.2z M151.5,9.3c0.3-0.2,0.4-0.6,0.4-1c0-0.5-0.1-0.8-0.4-1c-0.3-0.2-0.7-0.3-1.3-0.3h-1.4v2.5h1.4
		C150.8,9.6,151.3,9.5,151.5,9.3z"/>
	<path class="st1" d="M159.4,14h-2v-3.4l-3-5.2h2.1l1.9,3.2l1.9-3.2h2.1l-3,5.2V14z"/>
	<path class="st1" d="M172.8,14l-0.8-1.9h-3.7l-0.8,1.9h-2.1l3.7-8.7h1.9l3.7,8.7H172.8z M170.1,8l-1.1,2.5h2.2L170.1,8z"/>
	<path class="st1" d="M181.9,5.4h2V14h-2l-4.1-5.4V14h-2V5.4h1.8l4.2,5.6V5.4H181.9z"/>
	<path class="st1" d="M192.6,6.5c0.8,0.8,1.2,1.8,1.2,3.1c0,1.4-0.4,2.4-1.2,3.2s-2,1.2-3.7,1.2H186V5.4h3.1
		C190.6,5.4,191.8,5.7,192.6,6.5z M191.2,11.7c0.5-0.5,0.7-1.1,0.7-2c0-0.8-0.3-1.5-0.7-2S190,7.1,189,7.1h-1.1v5.3h1.2
		C190,12.3,190.7,12.1,191.2,11.7z"/>
	<path class="st1" d="M206.5,8.6l-2.4,4.8H203l-2.4-4.8V14h-2V5.4h2.6l2.2,4.8l2.2-4.8h2.6V14h-2L206.5,8.6L206.5,8.6z"/>
	<path class="st1" d="M217.9,12.9c-0.8,0.8-2,1.3-3.3,1.3s-2.4-0.5-3.3-1.3c-0.9-0.8-1.3-1.9-1.3-3.2s0.5-2.4,1.3-3.2s2-1.3,3.3-1.3
		s2.4,0.5,3.3,1.3c0.9,0.8,1.3,1.9,1.3,3.2C219.2,10.9,218.8,12,217.9,12.9z M217.2,9.7c0-0.8-0.3-1.4-0.7-2s-1.1-0.8-1.8-0.8
		s-1.3,0.3-1.8,0.8s-0.7,1.2-0.7,2s0.3,1.4,0.7,2c0.5,0.5,1.1,0.8,1.8,0.8s1.3-0.3,1.8-0.8C217.1,11.1,217.2,10.4,217.2,9.7z"/>
	<path class="st1" d="M227.9,8.2c0,1.4-0.5,2.3-1.6,2.7l2.2,3.1h-2.4l-1.9-2.7h-1.4V14h-2V5.4h3.3c1.4,0,2.3,0.2,2.9,0.7
		C227.6,6.5,227.9,7.2,227.9,8.2z M225.5,9.3c0.3-0.2,0.4-0.6,0.4-1c0-0.5-0.1-0.8-0.4-1c-0.3-0.2-0.7-0.3-1.3-0.3h-1.4v2.5h1.4
		C224.9,9.6,225.4,9.5,225.5,9.3z"/>
	<path class="st1" d="M236.1,5.4v1.7h-4.3v1.8h3.9v1.6h-3.9v1.8h4.4V14h-6.4V5.4H236.1z"/>
</g>
<g>
	<path class="st2" d="M57.5,22.9l-1.8-4.1h-7.9L46,22.9h-4.5L49.7,4h4.1L62,22.9H57.5z M51.8,9.6l-2.4,5.5h4.7L51.8,9.6z"/>
	<path class="st2" d="M68.4,7.8c-0.4,0.3-0.6,0.8-0.6,1.3s0.2,1,0.7,1.3s1.6,0.7,3.4,1.1c1.8,0.4,3.2,1.1,4.2,2s1.5,2.2,1.5,3.9
		s-0.6,3.1-1.9,4.1c-1.3,1.1-2.9,1.6-5,1.6c-3,0-5.7-1.1-8.1-3.3l2.5-3.1c2,1.8,3.9,2.7,5.6,2.7c0.8,0,1.4-0.2,1.8-0.5
		s0.7-0.8,0.7-1.4s-0.2-1-0.7-1.4c-0.5-0.3-1.4-0.7-2.8-1c-2.2-0.5-3.8-1.2-4.8-2s-1.5-2.2-1.5-3.9c0-1.8,0.6-3.2,1.9-4.1
		c1.3-1,2.9-1.5,4.8-1.5c1.3,0,2.5,0.2,3.8,0.6s2.4,1,3.3,1.8l-2.1,3.1c-1.6-1.2-3.3-1.9-5.1-1.9C69.4,7.3,68.8,7.4,68.4,7.8z"/>
	<path class="st2" d="M95.7,6.5c1.8,1.6,2.7,3.9,2.7,6.9s-0.9,5.3-2.6,7c-1.8,1.7-4.4,2.6-8,2.6h-6.5V4H88C91.3,4,93.9,4.8,95.7,6.5
		z M92.6,17.7c1-1,1.6-2.4,1.6-4.2s-0.5-3.3-1.6-4.3S90,7.7,87.8,7.7h-2.3v11.5h2.7C90.1,19.2,91.5,18.7,92.6,17.7z"/>
	<path class="st2" d="M114.9,22.9l-1.8-4.1h-7.9l-1.8,4.1H99L107.2,4h4.1l8.2,18.9H114.9z M109.2,9.6l-2.4,5.5h4.7L109.2,9.6z"/>
	<path class="st2" d="M15.9,41.9L19.2,31h4.4L27,41.9L30.7,31h4.6l-6.6,18.9h-3.1l-4.1-13.1l-4.1,13.1h-3.1L7.6,31h4.6L15.9,41.9z"
		/>
	<path class="st2" d="M53.1,47.3c-1.9,1.9-4.3,2.8-7,2.8c-2.8,0-5.1-0.9-7-2.8c-1.9-1.9-2.9-4.2-2.9-7s1-5.1,2.9-7
		c1.9-1.9,4.3-2.8,7-2.8c2.8,0,5.1,0.9,7,2.8c1.9,1.9,2.9,4.2,2.9,7S55,45.4,53.1,47.3z M51.7,40.3c0-1.7-0.5-3.1-1.6-4.3
		s-2.4-1.8-4-1.8s-2.9,0.6-4,1.8s-1.6,2.6-1.6,4.3s0.5,3.1,1.6,4.3s2.4,1.8,4,1.8s2.9-0.6,4-1.8C51.1,43.5,51.7,42,51.7,40.3z"/>
	<path class="st2" d="M74.8,37.3c0,3-1.2,5-3.6,5.9L76,50h-5.2l-4.2-6h-2.9v6h-4.2V31h7.2c2.9,0,5,0.5,6.3,1.5
		C74.2,33.5,74.8,35.1,74.8,37.3z M69.8,39.5c0.5-0.5,0.8-1.2,0.8-2.2s-0.3-1.7-0.8-2.1c-0.5-0.4-1.5-0.6-2.8-0.6h-3.2v5.6h3.1
		C68.3,40.2,69.2,40,69.8,39.5z"/>
	<path class="st2" d="M79.2,31h4.2v7.7l7.1-7.7h5.2l-7.5,8.3c0.6,0.9,1.8,2.6,3.6,5s3.1,4.3,3.9,5.5h-4.9l-5.5-7.5l-1.9,2.1v5.3
		h-4.2C79.2,49.7,79.2,31,79.2,31z"/>
	<path class="st2" d="M102.2,34.8c-0.4,0.3-0.6,0.8-0.6,1.3s0.2,1,0.7,1.3s1.6,0.7,3.4,1.1c1.8,0.4,3.2,1.1,4.2,2s1.5,2.2,1.5,3.9
		s-0.6,3.1-1.9,4.1c-1.3,1.1-2.9,1.6-5,1.6c-3,0-5.7-1.1-8.1-3.3l2.5-3.1c2,1.8,3.9,2.7,5.6,2.7c0.8,0,1.4-0.2,1.8-0.5
		s0.7-0.8,0.7-1.3c0-0.6-0.2-1-0.7-1.4c-0.5-0.3-1.4-0.7-2.8-1c-2.2-0.5-3.8-1.2-4.8-2s-1.5-2.2-1.5-3.9s0.6-3.2,1.9-4.1
		c1.3-1,2.9-1.5,4.8-1.5c1.3,0,2.5,0.2,3.8,0.6s2.4,1,3.3,1.8l-2.1,3.1c-1.6-1.2-3.3-1.9-5.1-1.9C103.2,34.3,102.6,34.4,102.2,34.8z
		"/>
	<path class="st2" d="M130.9,47.3c-1.9,1.9-4.3,2.8-7,2.8c-2.8,0-5.1-0.9-7-2.8c-1.9-1.9-2.9-4.2-2.9-7s1-5.1,2.9-7
		c1.9-1.9,4.3-2.8,7-2.8c2.8,0,5.1,0.9,7,2.8c1.9,1.9,2.9,4.2,2.9,7C133.8,43.1,132.8,45.4,130.9,47.3z M129.5,40.3
		c0-1.7-0.5-3.1-1.6-4.3s-2.4-1.8-4-1.8s-2.9,0.6-4,1.8s-1.6,2.6-1.6,4.3s0.5,3.1,1.6,4.3s2.4,1.8,4,1.8s2.9-0.6,4-1.8
		C128.9,43.5,129.5,42,129.5,40.3z"/>
	<path class="st2" d="M150.3,32.7c1.3,1.1,2,2.9,2,5.2s-0.7,4-2,5.1c-1.4,1.1-3.4,1.6-6.2,1.6h-2.5v5.3h-4.2V31h6.7
		C146.9,31,149,31.6,150.3,32.7z M147.2,40.1c0.5-0.6,0.8-1.4,0.8-2.5s-0.3-1.9-1-2.3c-0.7-0.5-1.7-0.7-3.1-0.7h-2.4V41h2.8
		C145.8,41,146.7,40.7,147.2,40.1z"/>
	<path class="st2" d="M39.2,61.8c-0.4,0.3-0.6,0.8-0.6,1.3s0.2,1,0.7,1.3s1.6,0.7,3.4,1.1c1.8,0.4,3.2,1.1,4.2,2s1.5,2.2,1.5,3.9
		c0,1.7-0.6,3.1-1.9,4.1c-1.3,1.1-2.9,1.6-5,1.6c-3,0-5.7-1.1-8.1-3.3l2.5-3.1c2,1.8,3.9,2.7,5.6,2.7c0.8,0,1.4-0.2,1.8-0.5
		c0.4-0.3,0.7-0.8,0.7-1.3c0-0.6-0.2-1-0.7-1.4c-0.5-0.3-1.4-0.7-2.8-1c-2.2-0.5-3.8-1.2-4.8-2s-1.5-2.2-1.5-3.9s0.6-3.2,1.9-4.1
		c1.3-1,2.9-1.5,4.8-1.5c1.3,0,2.5,0.2,3.8,0.6c1.3,0.4,2.4,1,3.3,1.8l-2,3c-1.6-1.2-3.3-1.9-5.1-1.9C40.2,61.3,39.6,61.4,39.2,61.8
		z"/>
	<path class="st2" d="M65.3,76.9l-1.8-4.1h-7.9l-1.8,4.1h-4.5L57.5,58h4.1l8.2,18.9H65.3z M59.6,63.6l-2.4,5.5h4.7L59.6,63.6z"/>
	<path class="st2" d="M85.1,58h4.2v18.9h-4.2l-9-11.8v11.8h-4.2V58h3.9l9.3,12.2C85.1,70.2,85.1,58,85.1,58z"/>
	<path class="st2" d="M108.4,60.5c1.8,1.6,2.7,3.9,2.7,6.9c0,2.9-0.9,5.3-2.6,7c-1.8,1.7-4.4,2.6-8,2.6H94V58h6.7
		C104,58,106.6,58.8,108.4,60.5z M105.3,71.7c1-1,1.6-2.4,1.6-4.2s-0.5-3.3-1.6-4.3s-2.6-1.5-4.8-1.5h-2.3v11.5h2.7
		C102.8,73.2,104.3,72.7,105.3,71.7z"/>
	<path class="st2" d="M122.2,76.9H118v-7.5L111.5,58h4.6l4.1,7l4.1-7h4.6l-6.5,11.4v7.5H122.2z"/>
	<path class="st2" d="M45.2,103.9V85h4.2v15.1h8v3.8H45.2z"/>
	<path class="st2" d="M74,103.9l-1.8-4.1h-7.9l-1.8,4.1H58L66.3,85h4.1l8.2,18.9H74z M68.3,90.6l-2.4,5.5h4.7L68.3,90.6z"/>
	<path class="st2" d="M93.9,85h4.2v18.9h-4.2l-9-11.8v11.8h-4.2V85h3.9l9.3,12.2C93.9,97.2,93.9,85,93.9,85z"/>
	<path class="st2" d="M116.3,85v3.8H107v3.9h8.5v3.6H107v3.9h9.7v3.7h-13.9V85H116.3z"/>
</g>
<g id="Layer_2_2_">
</g>
</svg>
