<?xml version="1.0" encoding="utf-8"?>
<!-- Generator: Adobe Illustrator 24.3.0, SVG Export Plug-In . SVG Version: 6.00 Build 0)  -->
<svg version="1.1" id="Layer_1" xmlns="http://www.w3.org/2000/svg" xmlns:xlink="http://www.w3.org/1999/xlink" x="0px" y="0px"
	 viewBox="0 0 241.8 145.8" style="enable-background:new 0 0 241.8 145.8;" xml:space="preserve">
<style type="text/css">
	.st0{display:none;}
	.st1{display:inline;}
	.st2{fill:#FFFFFF;}
</style>
<g id="Layer_2_1_" class="st0">
	<g class="st1">
		<path d="M8.8,9.5h2v3.1c-0.8,1-2,1.4-3.6,1.4c-1.3,0-2.4-0.4-3.2-1.2s-1.3-1.9-1.3-3.2S3.1,7.2,4,6.4s2-1.3,3.2-1.3
			s2.4,0.4,3.3,1.2l-1,1.4C9.1,7.4,8.8,7.1,8.5,7s-0.7-0.2-1-0.2C6.7,6.9,6,7.1,5.5,7.6S4.7,8.7,4.7,9.5s0.3,1.5,0.7,2
			c0.5,0.5,1,0.7,1.8,0.7c0.7,0,1.2-0.1,1.7-0.4L8.8,9.5L8.8,9.5z"/>
		<path d="M18.8,5.3V7h-4.3v1.8h3.9v1.6h-3.9v1.8h4.4v1.7h-6.4V5.3H18.8z"/>
		<path d="M24.2,7v7h-2V7h-2.5V5.3h6.9V7H24.2z"/>
		<path d="M33.5,7.1c-0.2,0.1-0.3,0.3-0.3,0.6s0.1,0.5,0.3,0.6s0.8,0.3,1.6,0.5s1.4,0.5,1.9,0.9s0.7,1,0.7,1.8s-0.3,1.4-0.8,1.9
			c-0.6,0.5-1.4,0.7-2.3,0.7c-1.4,0-2.6-0.5-3.7-1.5l1.2-1.4c0.9,0.8,1.8,1.2,2.6,1.2c0.3,0,0.7-0.1,0.8-0.3
			c0.2-0.1,0.3-0.4,0.3-0.7s-0.1-0.5-0.3-0.7c-0.2-0.1-0.7-0.3-1.3-0.5c-1-0.3-1.8-0.5-2.2-0.9c-0.5-0.4-0.7-1-0.7-1.8
			s0.3-1.4,0.9-1.9C32.7,5.2,33.4,5,34.3,5c0.6,0,1.2,0.1,1.8,0.3c0.6,0.2,1.1,0.5,1.5,0.8l-1,1.4c-0.8-0.6-1.5-0.8-2.4-0.8
			C33.9,6.8,33.7,6.9,33.5,7.1z"/>
		<path d="M45.4,14l-0.8-1.9H41L40.2,14h-2.1l3.7-8.7h1.9l3.7,8.7H45.4z M42.8,7.9l-1.1,2.5h2.2L42.8,7.9z"/>
		<path d="M56.3,8.5l-2.4,4.8h-1.2l-2.4-4.8V14h-2V5.3H51l2.2,4.8l2.2-4.8H58V14h-2V8.5H56.3z"/>
		<path d="M66.6,5.3V7h-4.3v1.8h3.9v1.6h-3.9v1.8h4.4v1.7h-6.4V5.3H66.6z"/>
		<path d="M78.3,6.5c0.8,0.8,1.2,1.8,1.2,3.1c0,1.4-0.4,2.4-1.2,3.2c-0.8,0.8-2,1.2-3.7,1.2h-2.9V5.3h3.1
			C76.3,5.3,77.5,5.7,78.3,6.5z M76.9,11.6c0.5-0.5,0.7-1.1,0.7-2c0-0.8-0.3-1.5-0.7-2c-0.5-0.5-1.2-0.7-2.2-0.7h-1.1v5.3h1.2
			C75.8,12.3,76.4,12,76.9,11.6z"/>
		<path d="M87.2,14l-0.8-1.9h-3.7L82,14h-2.1l3.7-8.7h1.9l3.7,8.7H87.2z M84.6,7.9l-1.1,2.5h2.2L84.6,7.9z"/>
		<path d="M93.4,14h-2v-3.4l-3-5.2h2.1l1.9,3.2l1.9-3.2h2.1l-3,5.2V14L93.4,14z"/>
	</g>
	<path class="st1" d="M108,6.5c0.8,0.8,1.2,1.8,1.2,3.1c0,1.4-0.4,2.4-1.2,3.2c-0.8,0.8-2,1.2-3.7,1.2h-2.9V5.4h3.1
		C106,5.4,107.2,5.7,108,6.5z M106.6,11.7c0.5-0.5,0.7-1.1,0.7-2c0-0.8-0.3-1.5-0.7-2c-0.5-0.5-1.2-0.7-2.2-0.7h-1.1v5.3h1.2
		C105.4,12.3,106.1,12.1,106.6,11.7z"/>
	<path class="st1" d="M117.2,5.4v1.7h-4.3v1.8h3.9v1.6h-3.9v1.8h4.4V14h-6.4V5.4H117.2z"/>
	<path class="st1" d="M119.1,14V5.4h2v6.9h3.7V14H119.1L119.1,14z"/>
	<path class="st1" d="M126.1,5.4h2V14h-2C126.1,14,126.1,5.4,126.1,5.4z"/>
	<path class="st1" d="M133.4,10.9l2.2-5.6h2.1l-3.5,8.7h-1.7L129,5.4h2.1L133.4,10.9z"/>
	<path class="st1" d="M144.9,5.4v1.7h-4.3v1.8h3.9v1.6h-3.9v1.8h4.4V14h-6.4V5.4H144.9z"/>
	<path class="st1" d="M153.9,8.2c0,1.4-0.5,2.3-1.6,2.7l2.2,3.1h-2.4l-1.9-2.7h-1.4V14h-2V5.4h3.3c1.4,0,2.3,0.2,2.9,0.7
		S153.9,7.2,153.9,8.2z M151.5,9.3c0.3-0.2,0.4-0.6,0.4-1c0-0.5-0.1-0.8-0.4-1c-0.3-0.2-0.7-0.3-1.3-0.3h-1.4v2.5h1.4
		C150.8,9.6,151.3,9.5,151.5,9.3z"/>
	<path class="st1" d="M159.4,14h-2v-3.4l-3-5.2h2.1l1.9,3.2l1.9-3.2h2.1l-3,5.2V14z"/>
	<path class="st1" d="M172.8,14l-0.8-1.9h-3.7l-0.8,1.9h-2.1l3.7-8.7h1.9l3.7,8.7H172.8z M170.1,8l-1.1,2.5h2.2L170.1,8z"/>
	<path class="st1" d="M181.9,5.4h2V14h-2l-4.1-5.4V14h-2V5.4h1.8l4.2,5.6V5.4H181.9z"/>
	<path class="st1" d="M192.6,6.5c0.8,0.8,1.2,1.8,1.2,3.1c0,1.4-0.4,2.4-1.2,3.2s-2,1.2-3.7,1.2H186V5.4h3.1
		C190.6,5.4,191.8,5.7,192.6,6.5z M191.2,11.7c0.5-0.5,0.7-1.1,0.7-2c0-0.8-0.3-1.5-0.7-2S190,7.1,189,7.1h-1.1v5.3h1.2
		C190,12.3,190.7,12.1,191.2,11.7z"/>
	<path class="st1" d="M206.5,8.6l-2.4,4.8H203l-2.4-4.8V14h-2V5.4h2.6l2.2,4.8l2.2-4.8h2.6V14h-2L206.5,8.6L206.5,8.6z"/>
	<path class="st1" d="M217.9,12.9c-0.8,0.8-2,1.3-3.3,1.3s-2.4-0.5-3.3-1.3c-0.9-0.8-1.3-1.9-1.3-3.2s0.5-2.4,1.3-3.2s2-1.3,3.3-1.3
		s2.4,0.5,3.3,1.3c0.9,0.8,1.3,1.9,1.3,3.2C219.2,10.9,218.8,12,217.9,12.9z M217.2,9.7c0-0.8-0.3-1.4-0.7-2s-1.1-0.8-1.8-0.8
		s-1.3,0.3-1.8,0.8s-0.7,1.2-0.7,2s0.3,1.4,0.7,2c0.5,0.5,1.1,0.8,1.8,0.8s1.3-0.3,1.8-0.8C217.1,11.1,217.2,10.4,217.2,9.7z"/>
	<path class="st1" d="M227.9,8.2c0,1.4-0.5,2.3-1.6,2.7l2.2,3.1h-2.4l-1.9-2.7h-1.4V14h-2V5.4h3.3c1.4,0,2.3,0.2,2.9,0.7
		C227.6,6.5,227.9,7.2,227.9,8.2z M225.5,9.3c0.3-0.2,0.4-0.6,0.4-1c0-0.5-0.1-0.8-0.4-1c-0.3-0.2-0.7-0.3-1.3-0.3h-1.4v2.5h1.4
		C224.9,9.6,225.4,9.5,225.5,9.3z"/>
	<path class="st1" d="M236.1,5.4v1.7h-4.3v1.8h3.9v1.6h-3.9v1.8h4.4V14h-6.4V5.4H236.1z"/>
</g>
<g>
	<path class="st2" d="M25,17.2c1.5,1.3,2.2,3.2,2.2,5.8c0,2.6-0.8,4.5-2.3,5.7c-1.5,1.2-3.8,1.8-6.9,1.8h-2.8v5.9h-4.7v-21H18
		C21.2,15.3,23.6,15.9,25,17.2z M21.6,25.4c0.6-0.6,0.8-1.5,0.8-2.8c0-1.2-0.4-2.1-1.1-2.6c-0.7-0.5-1.9-0.8-3.4-0.8h-2.7v7.1h3.2
		C20,26.4,21,26,21.6,25.4z"/>
	<path class="st2" d="M46,15.3v4.2H35.6v4.3H45v4h-9.4v4.4h10.8v4.1H30.9v-21H46z"/>
	<path class="st2" d="M59.4,19.3v16.9h-4.7V19.3h-5.9v-4.1h16.6v4.1H59.4z"/>
	<path class="st2" d="M85.8,22.2c0,3.4-1.3,5.5-4,6.5l5.3,7.5h-5.8l-4.6-6.7h-3.2v6.7h-4.7v-21h7.9c3.3,0,5.6,0.6,7,1.7
		S85.8,19.8,85.8,22.2z M80.1,24.7c0.6-0.5,0.9-1.3,0.9-2.5c0-1.1-0.3-1.9-0.9-2.3c-0.6-0.4-1.6-0.6-3.1-0.6h-3.5v6.2h3.4
		C78.4,25.5,79.5,25.3,80.1,24.7z"/>
	<path class="st2" d="M108,33.4c-2.1,2.1-4.7,3.1-7.8,3.1c-3.1,0-5.7-1-7.8-3.1c-2.1-2.1-3.2-4.6-3.2-7.7c0-3.1,1.1-5.7,3.2-7.7
		c2.1-2.1,4.7-3.1,7.8-3.1c3.1,0,5.7,1,7.8,3.1c2.1,2.1,3.2,4.6,3.2,7.7C111.2,28.7,110.1,31.3,108,33.4z M106.4,25.7
		c0-1.9-0.6-3.5-1.8-4.8c-1.2-1.3-2.7-2-4.4-2s-3.2,0.7-4.4,2c-1.2,1.3-1.8,2.9-1.8,4.8c0,1.9,0.6,3.5,1.8,4.8c1.2,1.3,2.7,2,4.4,2
		s3.2-0.7,4.4-2C105.8,29.1,106.4,27.5,106.4,25.7z"/>
	<path class="st2" d="M115.1,36.3v-21h4.7v16.8h8.9v4.2H115.1z"/>
	<path class="st2" d="M15.5,49.5c-0.4,0.4-0.7,0.9-0.7,1.5c0,0.6,0.3,1.1,0.8,1.5c0.6,0.4,1.8,0.8,3.8,1.3s3.5,1.2,4.6,2.2
		c1.1,1,1.6,2.4,1.6,4.3s-0.7,3.4-2.1,4.6c-1.4,1.2-3.3,1.8-5.6,1.8c-3.3,0-6.3-1.2-9-3.7l2.8-3.4c2.3,2,4.4,3,6.3,3
		c0.9,0,1.5-0.2,2-0.6c0.5-0.4,0.7-0.9,0.7-1.5s-0.3-1.1-0.8-1.5c-0.5-0.4-1.6-0.7-3.1-1.1c-2.4-0.6-4.2-1.3-5.4-2.3
		C10.5,54.5,10,53,10,51s0.7-3.5,2.1-4.6c1.4-1.1,3.2-1.6,5.4-1.6c1.4,0,2.8,0.2,4.2,0.7c1.4,0.5,2.6,1.2,3.7,2L23,51
		c-1.8-1.4-3.7-2.1-5.6-2.1C16.5,48.9,15.9,49.1,15.5,49.5z"/>
	<path class="st2" d="M38.4,49.3v16.9h-4.7V49.3h-5.9v-4h16.6v4H38.4z"/>
	<path class="st2" d="M61.2,66.3l-2-4.5h-8.8l-1.9,4.5h-5l9.1-21h4.5l9.1,21H61.2z M54.9,51.5l-2.6,6.1h5.2L54.9,51.5z"/>
	<path class="st2" d="M75.9,49.3v16.9h-4.7V49.3h-5.9v-4h16.6v4H75.9z"/>
	<path class="st2" d="M85.3,45.3H90v21h-4.7V45.3z"/>
	<path class="st2" d="M112.8,63.4c-2.1,2.1-4.7,3.1-7.8,3.1c-3.1,0-5.7-1-7.8-3.1c-2.1-2.1-3.2-4.6-3.2-7.7c0-3.1,1.1-5.7,3.2-7.7
		c2.1-2.1,4.7-3.1,7.8-3.1c3.1,0,5.7,1,7.8,3.1c2.1,2.1,3.2,4.6,3.2,7.7C116,58.7,114.9,61.3,112.8,63.4z M111.2,55.7
		c0-1.9-0.6-3.5-1.8-4.8c-1.2-1.3-2.7-2-4.4-2s-3.2,0.7-4.4,2c-1.2,1.3-1.8,2.9-1.8,4.8c0,1.9,0.6,3.5,1.8,4.8c1.2,1.3,2.7,2,4.4,2
		s3.2-0.7,4.4-2C110.6,59.1,111.2,57.5,111.2,55.7z"/>
	<path class="st2" d="M134.6,45.3h4.7v21h-4.7l-10-13.1v13.1h-4.7v-21h4.4l10.3,13.5V45.3z"/>
</g>
</svg>
