<?xml version="1.0" encoding="utf-8"?>
<!-- Generator: Adobe Illustrator 22.0.0, SVG Export Plug-In . SVG Version: 6.00 Build 0)  -->
<svg version="1.1" id="Layer_1" xmlns="http://www.w3.org/2000/svg" xmlns:xlink="http://www.w3.org/1999/xlink" x="0px" y="0px"
	 viewBox="0 0 18 18" style="enable-background:new 0 0 18 18;" xml:space="preserve">
<style type="text/css">
	.st0{fill:#FFFFFF;}
	.st1{fill:#78BF20;}
	.st2{fill:#78BE22;}
</style>
<g>
	<path class="st0" d="M9,17.1c-4.5,0-8.1-3.6-8.1-8.1c0-4.5,3.6-8.1,8.1-8.1s8.1,3.6,8.1,8.1C17.1,13.4,13.5,17.1,9,17.1z"/>
	<path class="st1" d="M9,1.3c4.3,0,7.7,3.5,7.7,7.7s-3.5,7.7-7.7,7.7S1.3,13.2,1.3,9S4.7,1.3,9,1.3 M9,0.5C4.3,0.5,0.5,4.3,0.5,9
		s3.8,8.5,8.5,8.5s8.5-3.8,8.5-8.5S13.7,0.5,9,0.5L9,0.5z"/>
</g>
<g>
	<g>
		<path class="st2" d="M9.7,5.1c0,0.5-0.4,0.9-0.9,0.9S8,5.6,8,5.1c0-0.5,0.4-0.9,0.9-0.9S9.7,4.6,9.7,5.1z M8.2,13.8V7h1.5v6.8H8.2
			z"/>
	</g>
</g>
</svg>
