<?xml version="1.0" encoding="utf-8"?>
<!-- Generator: Adobe Illustrator 19.2.1, SVG Export Plug-In . SVG Version: 6.00 Build 0)  -->
<svg version="1.1" id="Layer_1" xmlns="http://www.w3.org/2000/svg" xmlns:xlink="http://www.w3.org/1999/xlink" x="0px" y="0px"
	 viewBox="0 0 10 10" style="enable-background:new 0 0 10 10;" xml:space="preserve">
<style type="text/css">
	.st0{fill:#FFFFFF;}
	.st1{fill:#76B82A;}
</style>
<g>
	<path class="st0" d="M5,9.7C2.4,9.7,0.3,7.6,0.3,5S2.4,0.3,5,0.3S9.7,2.4,9.7,5S7.6,9.7,5,9.7z"/>
	<path class="st1" d="M5,0.5c1.2,0,2.3,0.5,3.2,1.3C9,2.7,9.5,3.8,9.5,5S9,7.3,8.2,8.2C7.3,9,6.2,9.5,5,9.5S2.7,9,1.8,8.2
		C1,7.3,0.5,6.2,0.5,5S1,2.7,1.8,1.8S3.8,0.5,5,0.5 M5,0.1C2.3,0.1,0.1,2.3,0.1,5S2.3,9.9,5,9.9S9.9,7.7,9.9,5S7.7,0.1,5,0.1L5,0.1z
		"/>
</g>
<path class="st1" d="M4.5,2.3C4.5,2,4.7,1.8,5,1.8c0.3,0,0.5,0.2,0.5,0.5v0.2c0,0.3-0.2,0.5-0.5,0.5c-0.3,0-0.5-0.2-0.5-0.5
	C4.5,2.5,4.5,2.3,4.5,2.3z"/>
<path class="st1" d="M4.5,4c0-0.2,0.2-0.3,0.5-0.3c0.3,0,0.5,0.1,0.5,0.3v3.9c0,0.2-0.2,0.3-0.5,0.3c-0.3,0-0.5-0.2-0.5-0.3V4z"/>
</svg>
