<?xml version="1.0" encoding="utf-8"?>
<!-- Generator: Adobe Illustrator 24.3.0, SVG Export Plug-In . SVG Version: 6.00 Build 0)  -->
<svg version="1.1" id="Layer_1" xmlns="http://www.w3.org/2000/svg" xmlns:xlink="http://www.w3.org/1999/xlink" x="0px" y="0px"
	 viewBox="0 0 241.8 145.8" style="enable-background:new 0 0 241.8 145.8;" xml:space="preserve">
<style type="text/css">
	.st0{display:none;}
	.st1{display:inline;}
	.st2{fill:#65B03B;}
</style>
<g id="Layer_2_1_" class="st0">
	<g class="st1">
		<path d="M8.8,9.5h2v3.1c-0.8,1-2,1.4-3.6,1.4c-1.3,0-2.4-0.4-3.2-1.2s-1.3-1.9-1.3-3.2S3.1,7.2,4,6.4s2-1.3,3.2-1.3
			s2.4,0.4,3.3,1.2l-1,1.4C9.1,7.4,8.8,7.1,8.5,7s-0.7-0.2-1-0.2C6.7,6.9,6,7.1,5.5,7.6S4.7,8.7,4.7,9.5s0.3,1.5,0.7,2
			c0.5,0.5,1,0.7,1.8,0.7c0.7,0,1.2-0.1,1.7-0.4L8.8,9.5L8.8,9.5z"/>
		<path d="M18.8,5.3V7h-4.3v1.8h3.9v1.6h-3.9v1.8h4.4v1.7h-6.4V5.3H18.8z"/>
		<path d="M24.2,7v7h-2V7h-2.5V5.3h6.9V7H24.2z"/>
		<path d="M33.5,7.1c-0.2,0.1-0.3,0.3-0.3,0.6s0.1,0.5,0.3,0.6s0.8,0.3,1.6,0.5s1.4,0.5,1.9,0.9s0.7,1,0.7,1.8s-0.3,1.4-0.8,1.9
			c-0.6,0.5-1.4,0.7-2.3,0.7c-1.4,0-2.6-0.5-3.7-1.5l1.2-1.4c0.9,0.8,1.8,1.2,2.6,1.2c0.3,0,0.7-0.1,0.8-0.3
			c0.2-0.1,0.3-0.4,0.3-0.7s-0.1-0.5-0.3-0.7c-0.2-0.1-0.7-0.3-1.3-0.5c-1-0.3-1.8-0.5-2.2-0.9c-0.5-0.4-0.7-1-0.7-1.8
			s0.3-1.4,0.9-1.9C32.7,5.2,33.4,5,34.3,5c0.6,0,1.2,0.1,1.8,0.3c0.6,0.2,1.1,0.5,1.5,0.8l-1,1.4c-0.8-0.6-1.5-0.8-2.4-0.8
			C33.9,6.8,33.7,6.9,33.5,7.1z"/>
		<path d="M45.4,14l-0.8-1.9H41L40.2,14h-2.1l3.7-8.7h1.9l3.7,8.7H45.4z M42.8,7.9l-1.1,2.5h2.2L42.8,7.9z"/>
		<path d="M56.3,8.5l-2.4,4.8h-1.2l-2.4-4.8V14h-2V5.3H51l2.2,4.8l2.2-4.8H58V14h-2V8.5H56.3z"/>
		<path d="M66.6,5.3V7h-4.3v1.8h3.9v1.6h-3.9v1.8h4.4v1.7h-6.4V5.3H66.6z"/>
		<path d="M78.3,6.5c0.8,0.8,1.2,1.8,1.2,3.1c0,1.4-0.4,2.4-1.2,3.2c-0.8,0.8-2,1.2-3.7,1.2h-2.9V5.3h3.1
			C76.3,5.3,77.5,5.7,78.3,6.5z M76.9,11.6c0.5-0.5,0.7-1.1,0.7-2c0-0.8-0.3-1.5-0.7-2c-0.5-0.5-1.2-0.7-2.2-0.7h-1.1v5.3h1.2
			C75.8,12.3,76.4,12,76.9,11.6z"/>
		<path d="M87.2,14l-0.8-1.9h-3.7L82,14h-2.1l3.7-8.7h1.9l3.7,8.7H87.2z M84.6,7.9l-1.1,2.5h2.2L84.6,7.9z"/>
		<path d="M93.4,14h-2v-3.4l-3-5.2h2.1l1.9,3.2l1.9-3.2h2.1l-3,5.2V14L93.4,14z"/>
	</g>
	<path class="st1" d="M108,6.5c0.8,0.8,1.2,1.8,1.2,3.1c0,1.4-0.4,2.4-1.2,3.2c-0.8,0.8-2,1.2-3.7,1.2h-2.9V5.4h3.1
		C106,5.4,107.2,5.7,108,6.5z M106.6,11.7c0.5-0.5,0.7-1.1,0.7-2c0-0.8-0.3-1.5-0.7-2c-0.5-0.5-1.2-0.7-2.2-0.7h-1.1v5.3h1.2
		C105.4,12.3,106.1,12.1,106.6,11.7z"/>
	<path class="st1" d="M117.2,5.4v1.7h-4.3v1.8h3.9v1.6h-3.9v1.8h4.4V14h-6.4V5.4H117.2z"/>
	<path class="st1" d="M119.1,14V5.4h2v6.9h3.7V14H119.1L119.1,14z"/>
	<path class="st1" d="M126.1,5.4h2V14h-2C126.1,14,126.1,5.4,126.1,5.4z"/>
	<path class="st1" d="M133.4,10.9l2.2-5.6h2.1l-3.5,8.7h-1.7L129,5.4h2.1L133.4,10.9z"/>
	<path class="st1" d="M144.9,5.4v1.7h-4.3v1.8h3.9v1.6h-3.9v1.8h4.4V14h-6.4V5.4H144.9z"/>
	<path class="st1" d="M153.9,8.2c0,1.4-0.5,2.3-1.6,2.7l2.2,3.1h-2.4l-1.9-2.7h-1.4V14h-2V5.4h3.3c1.4,0,2.3,0.2,2.9,0.7
		S153.9,7.2,153.9,8.2z M151.5,9.3c0.3-0.2,0.4-0.6,0.4-1c0-0.5-0.1-0.8-0.4-1c-0.3-0.2-0.7-0.3-1.3-0.3h-1.4v2.5h1.4
		C150.8,9.6,151.3,9.5,151.5,9.3z"/>
	<path class="st1" d="M159.4,14h-2v-3.4l-3-5.2h2.1l1.9,3.2l1.9-3.2h2.1l-3,5.2V14z"/>
	<path class="st1" d="M172.8,14l-0.8-1.9h-3.7l-0.8,1.9h-2.1l3.7-8.7h1.9l3.7,8.7H172.8z M170.1,8l-1.1,2.5h2.2L170.1,8z"/>
	<path class="st1" d="M181.9,5.4h2V14h-2l-4.1-5.4V14h-2V5.4h1.8l4.2,5.6V5.4H181.9z"/>
	<path class="st1" d="M192.6,6.5c0.8,0.8,1.2,1.8,1.2,3.1c0,1.4-0.4,2.4-1.2,3.2s-2,1.2-3.7,1.2H186V5.4h3.1
		C190.6,5.4,191.8,5.7,192.6,6.5z M191.2,11.7c0.5-0.5,0.7-1.1,0.7-2c0-0.8-0.3-1.5-0.7-2S190,7.1,189,7.1h-1.1v5.3h1.2
		C190,12.3,190.7,12.1,191.2,11.7z"/>
	<path class="st1" d="M206.5,8.6l-2.4,4.8H203l-2.4-4.8V14h-2V5.4h2.6l2.2,4.8l2.2-4.8h2.6V14h-2L206.5,8.6L206.5,8.6z"/>
	<path class="st1" d="M217.9,12.9c-0.8,0.8-2,1.3-3.3,1.3s-2.4-0.5-3.3-1.3c-0.9-0.8-1.3-1.9-1.3-3.2s0.5-2.4,1.3-3.2s2-1.3,3.3-1.3
		s2.4,0.5,3.3,1.3c0.9,0.8,1.3,1.9,1.3,3.2C219.2,10.9,218.8,12,217.9,12.9z M217.2,9.7c0-0.8-0.3-1.4-0.7-2s-1.1-0.8-1.8-0.8
		s-1.3,0.3-1.8,0.8s-0.7,1.2-0.7,2s0.3,1.4,0.7,2c0.5,0.5,1.1,0.8,1.8,0.8s1.3-0.3,1.8-0.8C217.1,11.1,217.2,10.4,217.2,9.7z"/>
	<path class="st1" d="M227.9,8.2c0,1.4-0.5,2.3-1.6,2.7l2.2,3.1h-2.4l-1.9-2.7h-1.4V14h-2V5.4h3.3c1.4,0,2.3,0.2,2.9,0.7
		C227.6,6.5,227.9,7.2,227.9,8.2z M225.5,9.3c0.3-0.2,0.4-0.6,0.4-1c0-0.5-0.1-0.8-0.4-1c-0.3-0.2-0.7-0.3-1.3-0.3h-1.4v2.5h1.4
		C224.9,9.6,225.4,9.5,225.5,9.3z"/>
	<path class="st1" d="M236.1,5.4v1.7h-4.3v1.8h3.9v1.6h-3.9v1.8h4.4V14h-6.4V5.4H236.1z"/>
</g>
<g>
	<path class="st2" d="M14.2,78.5l-1-2.3H8.8l-1,2.3H5.4L9.9,68h2.3l4.5,10.5H14.2z M11,71.1l-1.3,3h2.6L11,71.1z"/>
	<path class="st2" d="M20.3,70.1c-0.2,0.2-0.3,0.4-0.3,0.7c0,0.3,0.1,0.5,0.4,0.7s0.9,0.4,1.9,0.6s1.8,0.6,2.3,1.1s0.8,1.2,0.8,2.1
		S25,77,24.3,77.6s-1.6,0.9-2.8,0.9c-1.7,0-3.2-0.6-4.5-1.8l1.4-1.7c1.1,1,2.2,1.5,3.1,1.5c0.4,0,0.8-0.1,1-0.3
		c0.2-0.2,0.4-0.4,0.4-0.8s-0.1-0.6-0.4-0.8c-0.3-0.2-0.8-0.4-1.5-0.6c-1.2-0.3-2.1-0.7-2.7-1.1c-0.6-0.5-0.8-1.2-0.8-2.2
		s0.4-1.8,1.1-2.3s1.6-0.8,2.7-0.8c0.7,0,1.4,0.1,2.1,0.4c0.7,0.2,1.3,0.6,1.8,1L24,70.8c-0.9-0.7-1.9-1-2.8-1
		C20.8,69.8,20.5,69.9,20.3,70.1z"/>
	<path class="st2" d="M35.4,69.4c1,0.9,1.5,2.2,1.5,3.8c0,1.6-0.5,2.9-1.5,3.9S33,78.5,31,78.5h-3.6V68h3.7
		C33,68,34.4,68.4,35.4,69.4z M33.7,75.6c0.6-0.5,0.9-1.3,0.9-2.4c0-1-0.3-1.8-0.9-2.4C33.1,70.3,32.2,70,31,70h-1.3v6.4h1.5
		C32.3,76.4,33.1,76.1,33.7,75.6z"/>
	<path class="st2" d="M46.1,78.5l-1-2.3h-4.4l-1,2.3h-2.5L41.8,68h2.3l4.5,10.5H46.1z M42.9,71.1l-1.3,3h2.6L42.9,71.1z"/>
	<path class="st2" d="M57,74l1.9-6h2.4l1.8,6l2.1-6h2.5L64,78.5h-1.7L60,71.2l-2.3,7.3H56L52.4,68H55L57,74z"/>
	<path class="st2" d="M77.7,77c-1.1,1-2.4,1.6-3.9,1.6s-2.9-0.5-3.9-1.6s-1.6-2.3-1.6-3.9c0-1.5,0.5-2.8,1.6-3.9
		c1.1-1,2.4-1.6,3.9-1.6c1.6,0,2.9,0.5,3.9,1.6c1.1,1,1.6,2.3,1.6,3.9C79.3,74.7,78.8,76,77.7,77z M76.9,73.2c0-0.9-0.3-1.7-0.9-2.4
		s-1.3-1-2.2-1c-0.9,0-1.6,0.3-2.2,1s-0.9,1.5-0.9,2.4s0.3,1.7,0.9,2.4c0.6,0.7,1.3,1,2.2,1c0.9,0,1.6-0.3,2.2-1
		S76.9,74.1,76.9,73.2z"/>
	<path class="st2" d="M89.8,71.5c0,1.7-0.7,2.8-2,3.3l2.7,3.8h-2.9l-2.3-3.3h-1.6v3.3h-2.3V68h4c1.6,0,2.8,0.3,3.5,0.8
		C89.4,69.4,89.8,70.2,89.8,71.5z M87,72.7c0.3-0.3,0.4-0.7,0.4-1.2c0-0.6-0.2-1-0.5-1.2S86.1,70,85.4,70h-1.8v3.1h1.7
		C86.1,73.1,86.7,73,87,72.7z"/>
	<path class="st2" d="M92.2,68h2.3v4.3l4-4.3h2.9l-4.2,4.6c0.4,0.5,1,1.4,2,2.8s1.7,2.4,2.2,3.1h-2.7l-3.1-4.1l-1.1,1.2v3h-2.3
		C92.2,78.6,92.2,68,92.2,68z"/>
	<path class="st2" d="M105,70.1c-0.2,0.2-0.3,0.4-0.3,0.7c0,0.3,0.1,0.5,0.4,0.7s0.9,0.4,1.9,0.6s1.8,0.6,2.3,1.1s0.8,1.2,0.8,2.1
		s-0.4,1.7-1.1,2.3s-1.6,0.9-2.8,0.9c-1.7,0-3.2-0.6-4.5-1.8l1.4-1.7c1.1,1,2.2,1.5,3.1,1.5c0.4,0,0.8-0.1,1-0.3
		c0.2-0.2,0.4-0.4,0.4-0.8s-0.1-0.6-0.4-0.8c-0.3-0.2-0.8-0.4-1.5-0.6c-1.2-0.3-2.1-0.7-2.7-1.1c-0.6-0.5-0.8-1.2-0.8-2.2
		s0.4-1.8,1.1-2.3s1.6-0.8,2.7-0.8c0.7,0,1.4,0.1,2.1,0.4c0.7,0.2,1.3,0.6,1.8,1l-1.2,1.7c-0.9-0.7-1.9-1-2.8-1
		C105.5,69.8,105.2,69.9,105,70.1z"/>
	<path class="st2" d="M120.9,77c-1.1,1-2.4,1.6-3.9,1.6s-2.9-0.5-3.9-1.6s-1.6-2.3-1.6-3.9c0-1.5,0.5-2.8,1.6-3.9
		c1.1-1,2.4-1.6,3.9-1.6c1.6,0,2.9,0.5,3.9,1.6c1.1,1,1.6,2.3,1.6,3.9S122,76,120.9,77z M120.1,73.2c0-0.9-0.3-1.7-0.9-2.4
		s-1.3-1-2.2-1c-0.9,0-1.6,0.3-2.2,1s-0.9,1.5-0.9,2.4s0.3,1.7,0.9,2.4c0.6,0.7,1.3,1,2.2,1c0.9,0,1.6-0.3,2.2-1
		C119.8,74.9,120.1,74.1,120.1,73.2z"/>
	<path class="st2" d="M131.7,68.9c0.7,0.6,1.1,1.6,1.1,2.9s-0.4,2.2-1.1,2.8c-0.8,0.6-1.9,0.9-3.5,0.9h-1.4v2.9h-2.3V68h3.7
		C129.8,68,131,68.3,131.7,68.9z M130,73c0.3-0.3,0.4-0.8,0.4-1.4s-0.2-1-0.5-1.3c-0.4-0.3-0.9-0.4-1.7-0.4h-1.3v3.5h1.6
		C129.2,73.5,129.7,73.4,130,73z"/>
	<path class="st2" d="M141.1,70.1c-0.2,0.2-0.3,0.4-0.3,0.7c0,0.3,0.1,0.5,0.4,0.7c0.3,0.2,0.9,0.4,1.9,0.6s1.8,0.6,2.3,1.1
		s0.8,1.2,0.8,2.1s-0.4,1.7-1.1,2.3s-1.6,0.9-2.8,0.9c-1.7,0-3.2-0.6-4.5-1.8l1.4-1.7c1.1,1,2.2,1.5,3.1,1.5c0.4,0,0.8-0.1,1-0.3
		c0.2-0.2,0.4-0.4,0.4-0.8s-0.1-0.6-0.4-0.8c-0.3-0.2-0.8-0.4-1.5-0.6c-1.2-0.3-2.1-0.7-2.7-1.1c-0.6-0.5-0.8-1.2-0.8-2.2
		s0.4-1.8,1.1-2.3s1.6-0.8,2.7-0.8c0.7,0,1.4,0.1,2.1,0.4s1.3,0.6,1.8,1l-1.2,1.7c-0.9-0.7-1.9-1-2.8-1
		C141.6,69.8,141.3,69.9,141.1,70.1z"/>
	<path class="st2" d="M155.5,78.5l-1-2.3h-4.4l-1,2.3h-2.5l4.5-10.5h2.3l4.5,10.5H155.5z M152.4,71.1l-1.3,3h2.6L152.4,71.1z"/>
	<path class="st2" d="M166.6,68h2.3v10.5h-2.3l-5-6.6v6.6h-2.3V68h2.2l5.1,6.7V68z"/>
	<path class="st2" d="M179.5,69.4c1,0.9,1.5,2.2,1.5,3.8c0,1.6-0.5,2.9-1.5,3.9s-2.5,1.4-4.5,1.4h-3.6V68h3.7
		C177.1,68,178.5,68.4,179.5,69.4z M177.8,75.6c0.6-0.5,0.9-1.3,0.9-2.4c0-1-0.3-1.8-0.9-2.4c-0.6-0.6-1.5-0.8-2.6-0.8h-1.3v6.4h1.5
		C176.4,76.4,177.2,76.1,177.8,75.6z"/>
	<path class="st2" d="M187.2,78.5h-2.3v-4.1l-3.6-6.3h2.5l2.3,3.9l2.3-3.9h2.5l-3.6,6.3L187.2,78.5L187.2,78.5z"/>
	<path class="st2" d="M195.9,78.5V68h2.3v8.4h4.5v2.1H195.9z"/>
	<path class="st2" d="M211.9,78.5l-1-2.3h-4.4l-1,2.3H203l4.5-10.5h2.3l4.5,10.5H211.9z M208.7,71.1l-1.3,3h2.6L208.7,71.1z"/>
	<path class="st2" d="M222.9,68h2.3v10.5h-2.3l-5-6.6v6.6h-2.3V68h2.2l5.1,6.7V68z"/>
	<path class="st2" d="M235.4,68v2.1h-5.2v2.2h4.7v2h-4.7v2.2h5.4v2.1h-7.7V68H235.4z"/>
</g>
</svg>
